<svg width="24" height="24" viewBox="0 0 24 24" fill="none" xmlns="http://www.w3.org/2000/svg">
<path d="M12 3C17.514 3 22 6.685 22 11.213C22 16.253 16.854 19.372 12.087 19.372C10.06 19.372 8.539 18.933 7.539 18.66L3.535 19.856L4.787 16.956C3.835 15.956 2 14.368 2 11.213C2 6.685 6.486 3 12 3ZM12 1C5.372 1 0 5.573 0 11.213C0 13.603 0.932 15.804 2.427 17.377L0 23L7.563 20.74C9.148 21.174 10.664 21.372 12.086 21.372C19.184 21.373 24 16.441 24 11.213C24 5.573 18.628 1 12 1Z" fill="black"/>
</svg>
